<?xml version="1.0" encoding="utf-8"?>
<!-- Generator: Adobe Illustrator 23.0.1, SVG Export Plug-In . SVG Version: 6.00 Build 0)  -->
<svg version="1.1" id="Слой_1" xmlns="http://www.w3.org/2000/svg" xmlns:xlink="http://www.w3.org/1999/xlink" x="0px" y="0px"
	 viewBox="0 0 512 512" fill="#fbd525" style="enable-background:new 0 0 512 512;" xml:space="preserve">
<path d="M345.9,255.6L41.2,193.8L0,255.6l41.2,61.8L345.9,255.6z"/>
<path d="M21.8,168.8l5.6-8.4l324.5,65.8L512,255.6L0.3,16L21.8,168.8z"/>
<path d="M351.9,285L27.4,350.8l-5.6-8.4L0.3,495.2L512,255.6L351.9,285z"/>
</svg>
