<?xml version="1.0" encoding="utf-8"?>
<!-- Generator: Adobe Illustrator 23.0.1, SVG Export Plug-In . SVG Version: 6.00 Build 0)  -->
<svg version="1.1" id="Capa_1" xmlns="http://www.w3.org/2000/svg" xmlns:xlink="http://www.w3.org/1999/xlink" x="0px" y="0px"
	 viewBox="0 0 32.5 32.5" style="enable-background:new 0 0 32.5 32.5;" xml:space="preserve">
<polygon points="32.5,2.8 29.7,0 16.3,13.4 2.8,0 0,2.8 13.4,16.3 0,29.7 2.8,32.5 16.3,19.1 29.7,32.5 32.5,29.7 19.1,16.3 "/>
</svg>
